module bitbucket.org/mikehouston/asana-go

go 1.23

require (
	dario.cat/mergo v1.0.1
	github.com/google/go-querystring v1.1.0
	github.com/h2non/gock v1.2.0
	github.com/jessevdk/go-flags v1.6.1
	github.com/pkg/errors v0.9.1
	github.com/rs/xid v1.6.0
	golang.org/x/oauth2 v0.24.0
)

require (
	github.com/h2non/parth v0.0.0-20190131123155-b4df798d6542 // indirect
	golang.org/x/sys v0.28.0 // indirect
)
